[
    {
        "key": "group_58e8f8f3c6c14",
        "title": "Alignments (Do not clone whole group)",
        "fields": [
            {
                "key": "field_58e8f9a077235",
                "label": "Text Align",
                "name": "text_align",
                "type": "select",
                "instructions": "",
                "required": 1,
                "conditional_logic": 0,
                "wrapper": {
                    "width": "",
                    "class": "",
                    "id": ""
                },
                "multiple": 0,
                "allow_null": 0,
                "choices": {
                    "left-text": "Align Left",
                    "center-text": "Align Center",
                    "right-text": "Align Right",
                    "justify-text": "Align Justified"
                },
                "default_value": [],
                "ui": 0,
                "ajax": 0,
                "placeholder": "",
                "return_format": "value"
            }
        ],
        "location": [
            [
                {
                    "param": "post_type",
                    "operator": "==",
                    "value": "post"
                }
            ]
        ],
        "menu_order": 0,
        "position": "normal",
        "style": "default",
        "label_placement": "top",
        "instruction_placement": "label",
        "hide_on_screen": "",
        "active": 0,
        "description": ""
    },
    {
        "key": "group_58e8f63bda960",
        "title": "Links",
        "fields": [
            {
                "key": "field_58e8f644a7f04",
                "label": "Link Location",
                "name": "link_location",
                "type": "radio",
                "instructions": "",
                "required": 0,
                "conditional_logic": 0,
                "wrapper": {
                    "width": "",
                    "class": "",
                    "id": ""
                },
                "layout": "horizontal",
                "choices": {
                    "none": "None",
                    "internal": "Internal",
                    "external": "External"
                },
                "default_value": "",
                "other_choice": 0,
                "save_other_choice": 0,
                "allow_null": 0,
                "return_format": "value"
            },
            {
                "key": "field_58e8f671a7f05",
                "label": "Internal Link",
                "name": "internal_link",
                "type": "post_object",
                "instructions": "",
                "required": 1,
                "conditional_logic": [
                    [
                        {
                            "field": "field_58e8f644a7f04",
                            "operator": "==",
                            "value": "internal"
                        }
                    ]
                ],
                "wrapper": {
                    "width": "",
                    "class": "",
                    "id": ""
                },
                "post_type": [],
                "taxonomy": [],
                "allow_null": 0,
                "multiple": 0,
                "return_format": "object",
                "ui": 1
            },
            {
                "key": "field_58e8f68da7f06",
                "label": "External Link",
                "name": "external_link",
                "type": "text",
                "instructions": "",
                "required": 1,
                "conditional_logic": [
                    [
                        {
                            "field": "field_58e8f644a7f04",
                            "operator": "==",
                            "value": "external"
                        }
                    ]
                ],
                "wrapper": {
                    "width": "",
                    "class": "",
                    "id": ""
                },
                "default_value": "",
                "maxlength": "",
                "placeholder": "",
                "prepend": "",
                "append": ""
            },
            {
                "key": "field_58e8f6b0a7f07",
                "label": "Open Link in New Tab?",
                "name": "open_new_tab",
                "type": "true_false",
                "instructions": "",
                "required": 0,
                "conditional_logic": [
                    [
                        {
                            "field": "field_58e8f644a7f04",
                            "operator": "!=",
                            "value": "none"
                        }
                    ]
                ],
                "wrapper": {
                    "width": "",
                    "class": "",
                    "id": ""
                },
                "default_value": 0,
                "message": "",
                "ui": 0,
                "ui_on_text": "",
                "ui_off_text": ""
            }
        ],
        "location": [
            [
                {
                    "param": "post_type",
                    "operator": "==",
                    "value": "post"
                }
            ]
        ],
        "menu_order": 0,
        "position": "normal",
        "style": "default",
        "label_placement": "top",
        "instruction_placement": "label",
        "hide_on_screen": "",
        "active": 0,
        "description": ""
    },
    {
        "key": "group_58cdf5e5ef71f",
        "title": "Page Sections",
        "fields": [
            {
                "key": "field_58cdf6cb9e407",
                "label": "Section Modules",
                "name": "section_modules",
                "type": "flexible_content",
                "instructions": "",
                "required": 0,
                "conditional_logic": 0,
                "wrapper": {
                    "width": "",
                    "class": "",
                    "id": ""
                },
                "min": "",
                "max": "",
                "button_label": "Add Page Section",
                "layouts": [
                    {
                        "key": "58cdf6de7b408",
                        "name": "",
                        "label": "",
                        "display": "row",
                        "sub_fields": [],
                        "min": "",
                        "max": ""
                    }
                ]
            }
        ],
        "location": [
            [
                {
                    "param": "post_type",
                    "operator": "==",
                    "value": "page"
                }
            ]
        ],
        "menu_order": 0,
        "position": "normal",
        "style": "default",
        "label_placement": "top",
        "instruction_placement": "label",
        "hide_on_screen": [
            "the_content"
        ],
        "active": 1,
        "description": ""
    },
    {
        "key": "group_58e8ff9d094c9",
        "title": "Titles",
        "fields": [
            {
                "key": "field_58e8ffa3e1827",
                "label": "Title",
                "name": "title",
                "type": "text",
                "instructions": "",
                "required": 0,
                "conditional_logic": 0,
                "wrapper": {
                    "width": "",
                    "class": "",
                    "id": ""
                },
                "default_value": "",
                "maxlength": "",
                "placeholder": "",
                "prepend": "",
                "append": ""
            },
            {
                "key": "field_58e8fface1828",
                "label": "Title Align",
                "name": "title_align",
                "type": "clone",
                "instructions": "",
                "required": 0,
                "conditional_logic": 0,
                "wrapper": {
                    "width": "",
                    "class": "",
                    "id": ""
                },
                "clone": [
                    "field_58e8f9a077235"
                ],
                "prefix_label": 0,
                "prefix_name": 0,
                "display": "seamless",
                "layout": "block"
            },
            {
                "key": "field_58e8fff2e1829",
                "label": "Subtitle",
                "name": "subtitle",
                "type": "text",
                "instructions": "",
                "required": 0,
                "conditional_logic": 0,
                "wrapper": {
                    "width": "",
                    "class": "",
                    "id": ""
                },
                "default_value": "",
                "maxlength": "",
                "placeholder": "",
                "prepend": "",
                "append": ""
            },
            {
                "key": "field_58e90004e182a",
                "label": "Subtitle Align",
                "name": "subtitle_align",
                "type": "clone",
                "instructions": "",
                "required": 0,
                "conditional_logic": 0,
                "wrapper": {
                    "width": "",
                    "class": "",
                    "id": ""
                },
                "clone": [
                    "field_58e8f9a077235"
                ],
                "prefix_label": 0,
                "prefix_name": 0,
                "display": "seamless",
                "layout": "block"
            }
        ],
        "location": [
            [
                {
                    "param": "post_type",
                    "operator": "==",
                    "value": "post"
                }
            ]
        ],
        "menu_order": 0,
        "position": "normal",
        "style": "default",
        "label_placement": "top",
        "instruction_placement": "label",
        "hide_on_screen": "",
        "active": 0,
        "description": ""
    }
]